dj-database-url==0.3.0
dj-static==0.0.6
Django==1.8.4
django-filter==0.11.0
django-toolbelt==0.0.1
djangorestframework==3.2.3
gunicorn==19.3.0
Markdown==2.6.2
psycopg2==2.6.1
requests==2.7.0
static3==0.6.1
wheel==0.24.0
